INDEX VERSION 1.127+E:\CNPM\cvoi\.metadata\.plugins\org.eclipse.jdt.core
3021188250.index
163172794.index
1579561320.index
4170392287.index
831678200.index
968025228.index
2471433284.index
1115467115.index
1679873094.index
366028574.index
1098301611.index
305854171.index
3617179287.index
4224319821.index
1197572502.index
3789093283.index
1107206409.index
3956435527.index
1615393212.index
2040263737.index
1617087444.index
873181621.index
951877991.index
3431312762.index
3369663038.index
2486387284.index
2995161302.index
4052550474.index
298204897.index
693850786.index
409090276.index
2511350689.index
2897336761.index
1771655256.index
3343258756.index
2563494229.index
3285678104.index
2725134038.index
3875993882.index
2071114709.index
2144830893.index
2697557921.index
3065916431.index
3853237532.index
3412431631.index
515357626.index
15670333.index
3678202538.index
3305200034.index
269243565.index
1783679699.index
1341691082.index
1299022128.index
3791168129.index
793019031.index
2543374970.index
2498386234.index
4041092966.index
3974580528.index
30765161.index
3679434630.index
3141701017.index
3288107837.index
2121462074.index
3332066570.index
128367152.index
3377037638.index
2089502718.index
2218406917.index
3510441044.index
1759922261.index
4011584755.index
1676264096.index
4026074438.index
723571032.index
1607217774.index
4221314112.index
3305796558.index
2490998958.index
2698161163.index
270695884.index
2572962860.index
1211202292.index
1141723239.index
3444503812.index
1312506493.index
144341521.index
492517.index
3133528496.index
2916237808.index
834376756.index
972238685.index
3435711285.index
1143084963.index
1406716505.index
1802876442.index
2970789193.index
2776650825.index
4108727661.index
240039923.index
1232259073.index
4042268881.index
4054397157.index
2524372471.index
2471277426.index
1462554692.index
1870099899.index
1550549131.index
639501417.index
233988301.index
1232112595.index
3071095410.index
173693536.index
1995173708.index
1498219845.index
255686562.index
2476239300.index
332262594.index
4257325822.index
2240817974.index
2046138382.index
1157689914.index
3017891388.index
232743757.index
4110741853.index
1395449801.index
573543369.index
4278540420.index
3046318774.index
1293231833.index
4155206848.index
1544499462.index
226431599.index
1088081719.index
2617143526.index
3365602094.index
3790865664.index
1270234653.index
387831963.index
1772099631.index
1011692124.index
1697886153.index
